[gd_resource type="DynamicFont" load_steps=2 format=2]

[ext_resource path="res://Assets/Raw/ConnectionSerif.otf" type="DynamicFontData" id=1]

[resource]
size = 30
outline_color = Color( 0.392157, 0.14902, 0.14902, 1 )
font_data = ExtResource( 1 )
